<?xml version="1.0" encoding="utf-8"?>
<!-- Generator: Adobe Illustrator 19.0.0, SVG Export Plug-In . SVG Version: 6.00 Build 0)  -->
<svg version="1.1" id="Capa_1" xmlns="http://www.w3.org/2000/svg" xmlns:xlink="http://www.w3.org/1999/xlink" x="0px" y="0px"
	 viewBox="8 115.5 612 610.8" style="enable-background:new 8 115.5 612 610.8;" xml:space="preserve">
<style type="text/css">
	.st0{fill:#FFFFFF;}
</style>
<g>
	<g id="cross">
		<g>
			<polygon class="st0" points="620,150.9 584.5,115.5 314,385.5 43.5,115.5 8,150.9 278.5,420.9 8,690.9 43.5,726.3 314,456.3 
				584.5,726.3 620,690.9 349.5,420.9 			"/>
		</g>
	</g>
</g>
</svg>
