<?xml version="1.0" encoding="utf-8"?>
<!-- Generator: Adobe Illustrator 19.0.0, SVG Export Plug-In . SVG Version: 6.00 Build 0)  -->
<svg version="1.1" id="Layer_1" xmlns="http://www.w3.org/2000/svg" xmlns:xlink="http://www.w3.org/1999/xlink" x="0px" y="0px"
	 width="367px" height="367px" viewBox="165.4 -221.3 367 367" style="enable-background:new 165.4 -221.3 367 367;"
	 xml:space="preserve">
<style type="text/css">
	.st0{fill:#F0484C;}
	.st1{fill:#FFFFFF;}
</style>
<circle class="st0" cx="348.9" cy="-37.8" r="183.5"/>
<g>
	<g>
		<path class="st1" d="M457.1,5.8H240.6v-58.6h216.5V5.8z M250.3-3.9h197.1v-39.2H250.3V-3.9z"/>
	</g>
	<g>
		<rect x="250.3" y="1" class="st1" width="9.7" height="14.5"/>
	</g>
	<g>
		<rect x="240.6" y="-91" class="st1" width="9.7" height="43.6"/>
	</g>
	<g>
		<path class="st1" d="M293.9-43.1h-24.2c-8,0-14.5-6.5-14.5-14.5v-4.8c0-8,6.5-14.5,14.5-14.5h24.2c8,0,14.5,6.5,14.5,14.5v4.8
			C308.4-49.6,301.9-43.1,293.9-43.1z M269.7-67.3c-2.7,0-4.8,2.2-4.8,4.8v4.8c0,2.7,2.2,4.8,4.8,4.8h24.2c2.7,0,4.8-2.2,4.8-4.8
			v-4.8c0-2.7-2.2-4.8-4.8-4.8H269.7z"/>
	</g>
	<g>
		<path class="st1" d="M332.6,5.8c-11.8,0-19.4-11.5-19.4-19.4v-33.9h9.7v33.9c0,3.3,3.8,9.7,9.7,9.7V5.8z"/>
	</g>
</g>
</svg>
