<?xml version="1.0" encoding="utf-8"?>
<!-- Generator: Adobe Illustrator 19.0.0, SVG Export Plug-In . SVG Version: 6.00 Build 0)  -->
<svg version="1.1" id="Layer_1" xmlns="http://www.w3.org/2000/svg" xmlns:xlink="http://www.w3.org/1999/xlink" x="0px" y="0px"
	 width="32px" height="32px" viewBox="0 0 32 32" style="enable-background:new 0 0 32 32;" xml:space="preserve">
<style type="text/css">
	.st0{fill:#EF4347;}
</style>
<g>
	<g>
		<path id="XMLID_10_" class="st0" d="M27.7,2.5h-15c-0.2,0-0.4-0.2-0.4-0.4s0.2-0.4,0.4-0.4h15c0.2,0,0.4,0.2,0.4,0.4
			S27.9,2.5,27.7,2.5z"/>
		<path id="XMLID_9_" class="st0" d="M31.6,5h-19c-0.2,0-0.4-0.2-0.4-0.4s0.2-0.4,0.4-0.4h19c0.2,0,0.4,0.2,0.4,0.4S31.8,5,31.6,5z"
			/>
		<path id="XMLID_8_" class="st0" d="M29.2,7.4H12.6c-0.2,0-0.4-0.2-0.4-0.4c0-0.2,0.2-0.4,0.4-0.4h16.5c0.2,0,0.4,0.2,0.4,0.4
			C29.6,7.3,29.4,7.4,29.2,7.4z"/>
		<path class="st0" d="M4.4,0.4C2,0.4,0,2.3,0,4.7s2,4.4,4.4,4.4s4.4-2,4.4-4.4S6.8,0.4,4.4,0.4z M6.6,3.7C5.7,4.6,4.7,5.5,3.8,6.5
			c0,0,0,0,0,0c-0.1,0.1-0.2,0.1-0.3,0C3,6,2.6,5.6,2.1,5.1C2,5,2,5,2.1,4.9c0.2-0.2,0.3-0.3,0.4-0.4c0.1-0.1,0.2-0.1,0.3,0
			c0.2,0.2,0.5,0.5,0.7,0.7c0,0,0,0,0.1,0.1c0,0,0-0.1,0.1-0.1c0.7-0.7,1.5-1.5,2.2-2.2C5.9,2.9,6,2.8,6.1,2.9c0,0,0.1,0,0.1,0.1
			c0.2,0.1,0.3,0.3,0.4,0.4C6.7,3.5,6.7,3.6,6.6,3.7z"/>
	</g>
	<g>
		<path id="XMLID_7_" class="st0" d="M27.7,13.8h-15c-0.2,0-0.4-0.2-0.4-0.4c0-0.2,0.2-0.4,0.4-0.4h15c0.2,0,0.4,0.2,0.4,0.4
			C28.1,13.7,27.9,13.8,27.7,13.8z"/>
		<path id="XMLID_6_" class="st0" d="M31.6,16.3h-19c-0.2,0-0.4-0.2-0.4-0.4c0-0.2,0.2-0.4,0.4-0.4h19c0.2,0,0.4,0.2,0.4,0.4
			C32,16.1,31.8,16.3,31.6,16.3z"/>
		<path id="XMLID_5_" class="st0" d="M29.2,18.7H12.6c-0.2,0-0.4-0.2-0.4-0.4s0.2-0.4,0.4-0.4h16.5c0.2,0,0.4,0.2,0.4,0.4
			S29.4,18.7,29.2,18.7z"/>
		<path class="st0" d="M4.4,11.6C2,11.6,0,13.6,0,16s2,4.4,4.4,4.4s4.4-2,4.4-4.4S6.8,11.6,4.4,11.6z M6.6,14.9
			c-0.9,0.9-1.9,1.9-2.8,2.8c0,0,0,0,0,0c-0.1,0.1-0.2,0.1-0.3,0c-0.5-0.5-0.9-0.9-1.4-1.4c-0.1-0.1-0.1-0.2,0-0.3
			c0.2-0.2,0.3-0.3,0.4-0.4c0.1-0.1,0.2-0.1,0.3,0c0.2,0.2,0.5,0.5,0.7,0.7c0,0,0,0,0.1,0.1c0,0,0-0.1,0.1-0.1
			c0.7-0.7,1.5-1.5,2.2-2.2c0.1-0.1,0.1-0.1,0.2-0.1c0,0,0.1,0,0.1,0.1c0.2,0.1,0.3,0.3,0.4,0.4C6.7,14.7,6.7,14.8,6.6,14.9z"/>
	</g>
	<g>
		<path id="XMLID_4_" class="st0" d="M27.7,25.1h-15c-0.2,0-0.4-0.2-0.4-0.4c0-0.2,0.2-0.4,0.4-0.4h15c0.2,0,0.4,0.2,0.4,0.4
			C28.1,24.9,27.9,25.1,27.7,25.1z"/>
		<path id="XMLID_3_" class="st0" d="M31.6,27.5h-19c-0.2,0-0.4-0.2-0.4-0.4s0.2-0.4,0.4-0.4h19c0.2,0,0.4,0.2,0.4,0.4
			S31.8,27.5,31.6,27.5z"/>
		<path id="XMLID_2_" class="st0" d="M29.2,30H12.6c-0.2,0-0.4-0.2-0.4-0.4s0.2-0.4,0.4-0.4h16.5c0.2,0,0.4,0.2,0.4,0.4
			S29.4,30,29.2,30z"/>
		<path class="st0" d="M4.4,22.9c-2.4,0-4.4,2-4.4,4.4s2,4.4,4.4,4.4s4.4-2,4.4-4.4S6.8,22.9,4.4,22.9z M6.6,26.2
			c-0.9,0.9-1.9,1.9-2.8,2.8c0,0,0,0,0,0c-0.1,0.1-0.2,0.1-0.3,0c-0.5-0.5-0.9-0.9-1.4-1.4c-0.1-0.1-0.1-0.2,0-0.3
			c0.2-0.2,0.3-0.3,0.4-0.4c0.1-0.1,0.2-0.1,0.3,0c0.2,0.2,0.5,0.5,0.7,0.7c0,0,0,0,0.1,0.1c0,0,0-0.1,0.1-0.1
			c0.7-0.7,1.5-1.5,2.2-2.2c0.1-0.1,0.1-0.1,0.2-0.1c0,0,0.1,0,0.1,0.1c0.2,0.1,0.3,0.3,0.4,0.4C6.7,26,6.7,26.1,6.6,26.2z"/>
	</g>
</g>
<g id="XMLID_16_">
</g>
<g id="XMLID_17_">
</g>
<g id="XMLID_18_">
</g>
<g id="XMLID_19_">
</g>
<g id="XMLID_20_">
</g>
<g id="XMLID_21_">
</g>
</svg>
